<svg xmlns="http://www.w3.org/2000/svg" viewBox="-1245 640 20 20">
  <path id="noun_710556" d="M29.39,9.39v0h-20v7.5h0v.985h0V29.39h20V17.873h0Zm-19.015.985h18.03V9.39H10.375Zm0,18.03V10.375h5.9v18.03Zm18.03,0H17.255V10.375h11.15Z" transform="translate(-1254.39 630.61)"/>
</svg>
