<svg xmlns="http://www.w3.org/2000/svg" viewBox="-1245.759 596 20.231 20.625">
  <g id="Group_1018" data-name="Group 1018" transform="translate(-1296 -1)">
    <path id="Path_2959" data-name="Path 2959" d="M6.338,14.839l5.328,5.285a.565.565,0,0,0,.794,0l5.34-5.3a7.769,7.769,0,0,0,1.45-2.161,7.652,7.652,0,0,0,.681-3.173,7.868,7.868,0,0,0-15.735,0,7.659,7.659,0,0,0,.68,3.172A7.794,7.794,0,0,0,6.338,14.839ZM12.064,2.8a6.724,6.724,0,0,1,6.744,6.689,6.557,6.557,0,0,1-.583,2.719,6.652,6.652,0,0,1-1.23,1.841l-4.931,4.891L7.146,14.064A6.664,6.664,0,0,1,5.9,12.209a6.557,6.557,0,0,1-.583-2.717A6.726,6.726,0,0,1,12.064,2.8Z" transform="translate(48.293 595.312)"/>
    <path id="Path_2960" data-name="Path 2960" d="M22.174,21.595l-1.686-5.574-1.077.32L20.88,21.2H3.284l1.469-4.857-1.077-.32L1.99,21.595a.55.55,0,0,0,.088.493.562.562,0,0,0,.451.225H21.636a.562.562,0,0,0,.451-.225A.553.553,0,0,0,22.174,21.595Z" transform="translate(48.275 595.312)"/>
    <path id="Path_2961" data-name="Path 2961" d="M12.027,12.836A3.345,3.345,0,1,0,8.655,9.492,3.362,3.362,0,0,0,12.027,12.836Zm0-5.574a2.23,2.23,0,1,1-2.248,2.23A2.242,2.242,0,0,1,12.027,7.262Z" transform="translate(48.33 595.312)"/>
  </g>
</svg>
