<svg xmlns="http://www.w3.org/2000/svg" viewBox="-1245 684 20 20">
  <defs>
    <style>
      .cls-1, .cls-3 {
        fill: none;
      }

      .cls-1 {
        stroke: #000;
        stroke-width: 1px;
      }

      .cls-2 {
        stroke: none;
      }
    </style>
  </defs>
  <g id="Group_1017" data-name="Group 1017" transform="translate(-1296 -1)">
    <path id="noun_589494" d="M32.5,24.642H30.91l.682-2.092a.545.545,0,0,0-.37-.687.571.571,0,0,0-.711.358l-.789,2.422H27.616L28.3,22.55a.545.545,0,0,0-.37-.687.571.571,0,0,0-.711.358l-.789,2.422H24.242a.548.548,0,1,0,0,1.1H26.07l-.63,1.932H23.63a.548.548,0,1,0,0,1.1h1.454l-.769,2.358a.545.545,0,0,0,.37.687.586.586,0,0,0,.171.025.565.565,0,0,0,.54-.383l.876-2.688h2.106l-.769,2.358a.545.545,0,0,0,.37.687.586.586,0,0,0,.171.025.565.565,0,0,0,.54-.383l.876-2.688h2.318a.548.548,0,1,0,0-1.1H29.923l.63-1.932H32.5a.548.548,0,1,0,0-1.1ZM28.735,27.67H26.629l.63-1.932h2.106Z" transform="translate(32.937 668.163)"/>
    <g id="Rectangle_1169" data-name="Rectangle 1169" class="cls-1" transform="translate(51 685)">
      <rect class="cls-2" width="20" height="20" rx="5"/>
      <rect class="cls-3" x="0.5" y="0.5" width="19" height="19" rx="4.5"/>
    </g>
  </g>
</svg>
