<svg xmlns="http://www.w3.org/2000/svg" viewBox="-1028 335.636 20 19.364">
  <defs>
    <style>
      .cls-1 {
        opacity: 0.7;
      }

      .cls-2 {
        fill: none;
        stroke: #000;
        stroke-width: 1px;
      }
    </style>
  </defs>
  <g id="Group_1003" data-name="Group 1003" class="cls-1" transform="translate(-1112 -221)">
    <g id="Group_1002" data-name="Group 1002" transform="translate(0 0.636)">
      <path id="noun_710556" d="M29.39,9.39v0h-20v7.26h0V17.6h0V28.754h20V17.6h0Zm-19.015.954h18.03V9.39H10.375Zm0,17.457V10.344h5.9V27.8Zm18.03,0H17.255V10.344h11.15Z" transform="translate(74.61 546.61)"/>
      <path id="Path_2987" data-name="Path 2987" d="M7.513.777l-.7-.739L3.727,3.171.7,0,0,.717l3.727,3.91Z" transform="translate(94.857 569.322) rotate(-90)"/>
    </g>
    <path id="Path_2988" data-name="Path 2988" class="cls-2" d="M-1471.26,560.331h2.539" transform="translate(1558)"/>
    <path id="Path_2989" data-name="Path 2989" class="cls-2" d="M-1471.26,560.331h2.539" transform="translate(1558 4)"/>
    <path id="Path_2990" data-name="Path 2990" class="cls-2" d="M-1471.26,560.331h2.539" transform="translate(1558 8)"/>
    <path id="Path_2991" data-name="Path 2991" class="cls-2" d="M-1471.26,560.331h2.539" transform="translate(1558 12)"/>
  </g>
</svg>
