<svg xmlns="http://www.w3.org/2000/svg" viewBox="-1245.5 771.5 21 21">
  <defs>
    <style>
      .cls-1 {
        fill: none;
        stroke: #000;
        stroke-linecap: round;
        stroke-linejoin: round;
        stroke-miterlimit: 10;
        stroke-width: 1px;
      }
    </style>
  </defs>
  <g id="Group_1014" data-name="Group 1014" transform="translate(-1296 -1)">
    <g id="Group_1019" data-name="Group 1019">
      <path id="Path_2975" data-name="Path 2975" class="cls-1" d="M19.5,18H11.51l-.855-1.036A2.46,2.46,0,0,0,8.73,15.734H2.5A1.389,1.389,0,0,0,1,16.966V28.1a1.388,1.388,0,0,0,1.5,1.231H19.5A1.388,1.388,0,0,0,21,28.1V19.233A1.388,1.388,0,0,0,19.5,18Z" transform="translate(50 763.672)"/>
      <path id="Path_2976" data-name="Path 2976" class="cls-1" d="M7.563,7.406,9.914,1l14.06,4.957L22.61,9.673" transform="translate(46.29 772)"/>
      <line id="Line_3" data-name="Line 3" class="cls-1" x2="8.548" y2="3.038" transform="translate(58.029 776.368)"/>
    </g>
  </g>
</svg>
