<svg xmlns="http://www.w3.org/2000/svg" xmlns:xlink="http://www.w3.org/1999/xlink" viewBox="-14119 -4461 1280 825">
  <defs>
    <style>
      .cls-1 {
        clip-path: url(#clip-Wordpress_Login_-_Error_Message_1);
      }

      .cls-15, .cls-2, .cls-3, .cls-4, .cls-5, .cls-6, .cls-7, .cls-8, .cls-9 {
        fill: none;
      }

      .cls-2 {
        stroke: #2700ff;
      }

      .cls-2, .cls-3, .cls-4, .cls-5, .cls-6, .cls-7, .cls-8, .cls-9 {
        stroke-width: 2px;
      }

      .cls-3 {
        stroke: #00ffe2;
      }

      .cls-4 {
        stroke: #ea703d;
      }

      .cls-5 {
        stroke: #00efca;
      }

      .cls-6 {
        stroke: #0081ff;
      }

      .cls-7 {
        stroke: #0014ff;
      }

      .cls-8 {
        stroke: #00a7ff;
      }

      .cls-9 {
        stroke: #3b00ff;
      }

      .cls-10 {
        fill: url(#linear-gradient);
      }

      .cls-11 {
        fill: url(#linear-gradient-2);
      }

      .cls-12 {
        fill: url(#linear-gradient-3);
      }

      .cls-13 {
        fill: #0014ff;
        stroke: rgba(0,0,0,0);
      }

      .cls-14 {
        stroke: none;
      }

      .cls-16 {
        fill: #fbfbfb;
      }
    </style>
    <linearGradient id="linear-gradient" x1="0.143" y1="0.347" x2="0.586" y2="0.619" gradientUnits="objectBoundingBox">
      <stop offset="0" stop-color="#36ffd8"/>
      <stop offset="1" stop-color="#00a7ff"/>
    </linearGradient>
    <linearGradient id="linear-gradient-2" x1="0.5" x2="0.63" y2="0.668" gradientUnits="objectBoundingBox">
      <stop offset="0" stop-color="#009dff"/>
      <stop offset="1" stop-color="#254df4"/>
    </linearGradient>
    <linearGradient id="linear-gradient-3" x1="0.5" x2="0.5" y2="1" gradientUnits="objectBoundingBox">
      <stop offset="0" stop-color="#003bff"/>
      <stop offset="1" stop-color="#00ffe2"/>
    </linearGradient>
    <clipPath id="clip-Wordpress_Login_-_Error_Message_1">
      <rect x="-14119" y="-4461" width="1280" height="825"/>
    </clipPath>
  </defs>
  <g id="Wordpress_Login_-_Error_Message_1" data-name="Wordpress Login -  Error Message – 1" class="cls-1">
    <rect class="cls-16" x="-14119" y="-4461" width="1280" height="825"/>
    <path id="Path_1952" data-name="Path 1952" class="cls-2" d="M-235.948,3699.477l1.027-13.3,12.79,3.142,1.854-13.86,11.94,3.577,1.368-12.8,12.6,4.834" transform="translate(-10603.545 -5458.682) rotate(69)"/>
    <g id="Ellipse_266" data-name="Ellipse 266" class="cls-3" transform="translate(-13048 -4386)">
      <circle class="cls-14" cx="10.5" cy="10.5" r="10.5"/>
      <circle class="cls-15" cx="10.5" cy="10.5" r="9.5"/>
    </g>
    <path id="Path_1955" data-name="Path 1955" class="cls-4" d="M-235.948,3699.477l1.027-13.3,12.79,3.142,1.854-13.86,11.94,3.577,1.368-12.8,12.6,4.834" transform="translate(-12887.871 -7395.413) rotate(15)"/>
    <g id="Group_1071" data-name="Group 1071" transform="translate(-13737 -4354)">
      <g id="Ellipse_265" data-name="Ellipse 265" class="cls-5" transform="translate(817 482)">
        <circle class="cls-14" cx="23.5" cy="23.5" r="23.5"/>
        <circle class="cls-15" cx="23.5" cy="23.5" r="22.5"/>
      </g>
      <path id="Path_1953" data-name="Path 1953" class="cls-3" d="M.5.5,46.614,31.517.5,56.735Z" transform="translate(794.135 -72.235)"/>
      <path id="Path_1956" data-name="Path 1956" class="cls-2" d="M-235.948,3699.477l1.027-13.3,12.79,3.142,1.854-13.86,11.94,3.577,1.368-12.8,12.6,4.834" transform="translate(4198.455 -706.682) rotate(69)"/>
      <path id="Path_1957" data-name="Path 1957" class="cls-6" d="M-235.948,3699.477l1.027-13.3,12.79,3.142,1.854-13.86,11.94,3.577,1.368-12.8,12.6,4.834" transform="translate(2958.91 -2305.645) rotate(34)"/>
      <g id="Rectangle_1233" data-name="Rectangle 1233" class="cls-7" transform="translate(579.026 529.284) rotate(22)">
        <rect class="cls-14" width="18" height="18"/>
        <rect class="cls-15" x="1" y="1" width="16" height="16"/>
      </g>
      <g id="Rectangle_1234" data-name="Rectangle 1234" class="cls-8" transform="matrix(0.602, -0.799, 0.799, 0.602, 771.018, 108.96)">
        <rect class="cls-14" width="23" height="23"/>
        <rect class="cls-15" x="1" y="1" width="21" height="21"/>
      </g>
      <g id="Ellipse_267" data-name="Ellipse 267" class="cls-4" transform="translate(764 280)">
        <circle class="cls-14" cx="23.5" cy="23.5" r="23.5"/>
        <circle class="cls-15" cx="23.5" cy="23.5" r="22.5"/>
      </g>
      <path id="Path_2176" data-name="Path 2176" class="cls-9" d="M.5.5,46.614,31.517.5,56.735Z" transform="translate(635.029 222.836) rotate(-59)"/>
    </g>
    <g id="Group_1070" data-name="Group 1070" transform="translate(-14421 -4424)">
      <g id="Ellipse_268" data-name="Ellipse 268" class="cls-5" transform="translate(428.162 225.26) rotate(180)">
        <circle class="cls-14" cx="23.5" cy="23.5" r="23.5"/>
        <circle class="cls-15" cx="23.5" cy="23.5" r="22.5"/>
      </g>
      <path id="Path_1958" data-name="Path 1958" class="cls-3" d="M.5.5,46.614,31.517.5,56.735Z" transform="translate(594.027 531.495) rotate(180)"/>
      <path id="Path_1959" data-name="Path 1959" class="cls-8" d="M.5.5,31.034,21.037.5,37.735Z" transform="translate(1342.374 122.938) rotate(30)"/>
      <path id="Path_1960" data-name="Path 1960" class="cls-2" d="M-235.948,3699.477l1.027-13.3,12.79,3.142,1.854-13.86,11.94,3.577,1.368-12.8,12.6,4.834" transform="translate(-2999.293 1449.942) rotate(-111)"/>
      <path id="Path_1961" data-name="Path 1961" class="cls-6" d="M-235.948,3699.477l1.027-13.3,12.79,3.142,1.854-13.86,11.94,3.577,1.368-12.8,12.6,4.834" transform="translate(-1736.748 2971.904) rotate(-146)"/>
      <g id="Rectangle_1236" data-name="Rectangle 1236" class="cls-7" transform="translate(620.136 213.976) rotate(-158)">
        <rect class="cls-14" width="18" height="18"/>
        <rect class="cls-15" x="1" y="1" width="16" height="16"/>
      </g>
      <g id="Rectangle_1237" data-name="Rectangle 1237" class="cls-8" transform="matrix(-0.602, 0.799, -0.799, -0.602, 428.145, 634.299)">
        <rect class="cls-14" width="23" height="23"/>
        <rect class="cls-15" x="1" y="1" width="21" height="21"/>
      </g>
      <g id="Ellipse_269" data-name="Ellipse 269" class="cls-4" transform="translate(435.162 463.26) rotate(180)">
        <circle class="cls-14" cx="23.5" cy="23.5" r="23.5"/>
        <circle class="cls-15" cx="23.5" cy="23.5" r="22.5"/>
      </g>
    </g>
    <path id="Path_1962" data-name="Path 1962" class="cls-8" d="M.5.5,31.034,21.037.5,37.735Z" transform="translate(-13864.212 -3718.678) rotate(-150)"/>
    <g id="Group_1388" data-name="Group 1388" transform="translate(-13576 -4436.331)">
      <g id="Group_640" data-name="Group 640" transform="translate(48 17.331)">
        <path id="Path_2087" data-name="Path 2087" class="cls-10" d="M85.531,43.379,82.089,56.047a5.348,5.348,0,0,1-5.023,4.181c-1.225-.047-2.418.2-5.426-2.813l-6-6.015a18.974,18.974,0,0,1-4.5-5.907,11.4,11.4,0,0,1-.5-6.964c.264-1.244,1.829-4.772,4.4-5.829,0,0-4.635,2.285-6.682,6.373S53.8,51.384,61.161,58.938s9.7,9.606,9.7,9.606,5.534,5.363,12.278,1.43c2.387-1.554,4.914-3.023,6.17-7.811s3.194-12.521,3.194-12.521a5.142,5.142,0,0,0-2.155-5.425A5.875,5.875,0,0,0,85.531,43.379Z" transform="translate(-56.236 -27.617)"/>
        <path id="Path_2088" data-name="Path 2088" class="cls-11" d="M29.863,53.033c-.124.544-.279,1.1-.434,1.648-.527,1.943-1.1,3.886-1.628,5.829-.744,2.674-1.349,5.425-2.232,8.052-1.457,4.306-5.271,8.487-9.689,9.73C9.043,80.234,4.19,78.369.935,75.975a10.541,10.541,0,0,0,6.139,1.819,12.575,12.575,0,0,0,5.5-1.881,10.338,10.338,0,0,0,3.488-2.953c1.767-2.5,2.341-5.658,3.085-8.565.4-1.617.822-3.218,1.225-4.834.682-2.876,1.984-5.844-.5-8.3A5.618,5.618,0,0,0,14.36,49.8c-1.116.3-12.906,3.168-12.906,3.168C1.33,53,.9,52.377.849,52.3a5.624,5.624,0,0,1,.891-7.132c1.969-1.865,5.116-2.161,7.612-2.86A53.9,53.9,0,0,1,17.678,40.4c2.946-.342,6.108.218,8.263,2.394C28,44.841,29.832,47.514,30.1,50.514A8.53,8.53,0,0,1,29.863,53.033Z" transform="translate(14.951 -34.038)"/>
        <path id="Path_2089" data-name="Path 2089" class="cls-12" d="M20.49,27.077l-7.813-7.834s-2.387-2.005-1.628-4.741,2.031-4.2,4.263-4.8S27.158,6.668,27.158,6.668s6.064-1.563,9.707,2.09A12.929,12.929,0,0,1,41.031,17.7a19.323,19.323,0,0,0-.837-6.979,17.239,17.239,0,0,0-3.829-6.109A15.071,15.071,0,0,0,24.148.046a39.2,39.2,0,0,0-7.209,1.43c-2.821.762-5.627,1.539-8.433,2.3A14.523,14.523,0,0,0,4.212,5.409,8.748,8.748,0,0,0,.5,10.311a11.893,11.893,0,0,0,.312,7.378c1.039,2.782,3.178,4.71,5.224,6.762,1.674,1.679,3.349,3.342,4.992,5.036,1.4,1.446,2.961,2.891,5.023,3.171a4.827,4.827,0,0,0,4.372-1.57c.5-.56,1.581-2.114,1.256-2.813C21.5,27.854,20.831,27.419,20.49,27.077Z" transform="translate(4.015 0)"/>
      </g>
      <path id="Path_2090" data-name="Path 2090" class="cls-13" d="M3.526-20.281v-8.378H5.4v6.712H8.967v1.666Zm13.975,0-.779-1.81H13.21l-.779,1.81h-1.99l3.62-8.378h1.81l3.62,8.378Zm-2.529-5.885-1.055,2.433h2.1Zm9.708,5.885H22.81v-3.308l-2.9-5.07h2.026l1.81,3.116,1.81-3.116h2.026l-2.9,5.07Zm11.038-8.378v1.666H31.548v1.726H35.3v1.594H31.548v1.738h4.3v1.654H29.678v-8.378Zm9.792,2.781a2.467,2.467,0,0,1-1.594,2.6l2.121,3h-2.3l-1.858-2.673H40.585v2.673h-1.87v-8.378h3.176A4.554,4.554,0,0,1,44.678-28,2.543,2.543,0,0,1,45.511-25.878Zm-2.253.995a1.266,1.266,0,0,0,.348-.989,1.06,1.06,0,0,0-.36-.929,2.3,2.3,0,0,0-1.258-.252h-1.4v2.481h1.366A2.01,2.01,0,0,0,43.257-24.884ZM7.194-5.665H3.526v-8.378h3.26a4.7,4.7,0,0,1,1.468.2,2.105,2.105,0,0,1,.929.551,2.168,2.168,0,0,1,.563,1.462,1.714,1.714,0,0,1-.635,1.462,2.289,2.289,0,0,1-.3.21q-.084.042-.3.138a2.2,2.2,0,0,1,1.24.7,1.953,1.953,0,0,1,.461,1.324,2.253,2.253,0,0,1-.6,1.546A3.131,3.131,0,0,1,7.194-5.665ZM5.4-10.651h.887a3,3,0,0,0,1.157-.168.708.708,0,0,0,.378-.725.75.75,0,0,0-.348-.737,2.755,2.755,0,0,0-1.175-.18H5.4Zm0,3.4H6.678a2.833,2.833,0,0,0,1.2-.2.783.783,0,0,0,.4-.779.749.749,0,0,0-.425-.767A3.646,3.646,0,0,0,6.5-9.177H5.4Zm6.987,1.582v-8.378h1.87v6.712h3.572v1.666Zm13.448-8.378v1.666H21.66v1.726h3.751v1.594H21.66v1.738h4.3v1.654H19.79v-8.378Zm8.258,0h1.87v8.378h-1.87L30.1-10.914v5.25h-1.87v-8.378h1.75l4.111,5.393Zm10.931,1.1a3.927,3.927,0,0,1,1.2,3.05A4.118,4.118,0,0,1,45.049-6.8a4.932,4.932,0,0,1-3.566,1.139H38.619v-8.378h2.96A4.92,4.92,0,0,1,45.019-12.946Zm-1.372,4.98a2.458,2.458,0,0,0,.689-1.882,2.518,2.518,0,0,0-.689-1.9,2.946,2.946,0,0,0-2.115-.665H40.489v5.094h1.187A2.772,2.772,0,0,0,43.647-7.966Z" transform="translate(99.788 57.578)"/>
    </g>
  </g>
</svg>
