<svg xmlns="http://www.w3.org/2000/svg" viewBox="1618.917 2526 15.038 15.038">
  <path id="Arrow_-_Down" data-name="Arrow - Down" d="M14.508,6.989,7.895,13.6V0H7.143V13.6L.53,6.989,0,7.519l7.519,7.519,7.519-7.519Z" transform="translate(1633.955 2526) rotate(90)"/>
</svg>
